
***NEW CHANNEL***

idundefined
num87152421896

***JOIN***

idundefined
num87152421896
positon1

***NEW CHANNEL***

idundefined
num<unknown>

***NEW CHANNEL***

idundefined
num<unknown>

***CALLED***

idundefined
num87152421896
agentP.Golubev

***NEW CHANNEL***

idundefined
num204

***NO ANSWER***

idundefined
num87152421896
agentP.Golubev

***LEAVE***

idundefined
num87152421896

***NEW CHANNEL***

idundefined
num207
